{
	"eid":"ST15621",
	"date":"Tuesday 15th June 2021",
	"titleF":"Computer Vision Software",
	"titleL":"Show and Tell",
	"organizer":"<br>Department of Engineering Science<br>University of Oxford",
	"imgsrc":"./images/show_and_tell_2021/show_and_tell_header_visualai.png"
}